{
    "type": "service_account",
    "project_id": "testing-247108",
    "private_key_id": "889d73f1eeb267704d69ab5aa405089c9d3fd04f",
    "private_key": "-----BEGIN PRIVATE KEY-----\nMIIEvQIBADANBgkqhkiG9w0BAQEFAASCBKcwggSjAgEAAoIBAQC8crPpsMV01ejF\nkgGgMOOSsCPfCRXP8ubLT8yNmQR6gLFwyyoaGMI1hyJWV8jNx/eRF/sHhmLx5yXA\nGhzXPpHDj5ETyi+RGIVwnCMoWUnjMJmJ3f1a+F38yFcjb2TtjotJ/BrXceEQ4flt\nFd+b8XK5Cu1GHDtcOZVcYavU1LQN+/EBtDAJt0w2+3eEqRNVKmU4RdSTBQ7y4fwb\nW8FznHvBS+0T66HWlWI9yWw+N+GHU6mvfj+353jO7QU9Dcwgo80G9HTYA+HQRtqg\nG37oIADA1uKJhPYiMFSBUHSjbabicBKNrnQglQA3whkFMiLu2GEImyAWBPX8iHds\nTS26XDHVAgMBAAECggEABnSjI1bgq3QLgBR/H+16J6OHQGP83mLlaKLFxguvUAIE\nx3F88lLATm9KwWygQ/pnyaLpwNQn+L5QzaqnVnFTMtZCI6HUwif1+Z8DrlAWvE9v\n0b2sKPe4Aomba0BCPnLDD0hcDrQyQAQ5vvSq9G+PnPVZ86xSapeiEqgu59Ysiou0\nl2T0zZfHBznp0CxKrbT78qfZSu1R9ng0uag37NPR4MXWZxLgw7Tn1W0r5EF7xaLI\nqf808s6xq7m8A6PWQO920SLUVZ/GqRpJWEgaAhiwT0QKKvTo0R2V9QaRLy5qwj4m\nhpvyw+9e9BElzaSmtTdY0xB1S8v4Y14jSDpmSLioOQKBgQDvJUQHCgYBSCOPLDow\nEBAQUiptI7LtENYAcnTt2lsul8Kl0PWJV9NXWquh4mEDmN1Dkna0PuRXrZEJvqGp\nx9pHjm730C/15pMADfxVWG+7BfqRFKvzE3SeHcM9hE6PX6pFlDdMvjv0EO61nMzB\nFPzd9erRd9m7tfeXhXX9opNzOQKBgQDJurzb2C66QFnO7TUVYoqQYs8nh4AsfhLN\nbY6bmy9DANeQ/XfIIm8LmZjO6yqbZvRAHEPXwU7dY3Lf3bpXHDk6wLF8tnna9Koo\ncYQg8G1vTrRIhlUgqegR9XSx0JLnDNdUiEvxQ1+9gjdgUJ35wAFOqzIuQxtipAIO\nyqVMuAlnfQKBgBIe+salxcq3Eqq4qTgXH4B9GWXnvJkmG3ExOxcC4sHnEgLKkLB1\njTgjULoVk1BYdvu1z3TdByR1rHXWkh1xXWLqshHpHpk9fYoVhTdaWi0LyO7RaC4l\nHUMV8kNpESLgFuDq2D3idFyMI+pzFTjUREz1Y3O35zHIGhjLLiOn/BBRAoGAEboO\nJId/u7Ax9CQWGRX6tStppsCae85sWo75DCV75rhpOP19DCIyfeN2cSBrMxK9/fA9\n6fS7uGqnypJScJszUD1km1/xn1MGrN0kzjwycaiJ4SGk02T61rEqGwIIFrOjLHN5\nsO7Jt/58XUNYTn0X4FDc7QHKo0VkROZ71h0J/oUCgYEAiqpWiEna2N7op7qJqZg+\nb+ZxCI3hR0XG7BC6fBrqxNSxvI0zNnwFW+v/aLiUnD4+CvSnUJeDmGyljibwumU1\n/s6Ox2OHe1h4ine3UeeIRDjitO0UbykbCgMz6SYqo2mCxU5wiMnlzJ5cNiZTVcvT\n+E+K/b+CETgMdWIZz1/xxtc=\n-----END PRIVATE KEY-----\n",
    "client_email": "potato@testing-247108.iam.gserviceaccount.com",
    "client_id": "109728642456962560757",
    "auth_uri": "https://accounts.google.com/o/oauth2/auth",
    "token_uri": "https://oauth2.googleapis.com/token",
    "auth_provider_x509_cert_url": "https://www.googleapis.com/oauth2/v1/certs",
    "client_x509_cert_url": "https://www.googleapis.com/robot/v1/metadata/x509/potato%40testing-247108.iam.gserviceaccount.com"
  }
  