<?xml version="1.0" encoding="utf-8"?>
<!-- Generator: Adobe Illustrator 22.1.0, SVG Export Plug-In . SVG Version: 6.00 Build 0)  -->
<svg version="1.1" id="Layer_1" xmlns="http://www.w3.org/2000/svg" xmlns:xlink="http://www.w3.org/1999/xlink" x="0px" y="0px"
	 viewBox="0 0 256 256" style="enable-background:new 0 0 256 256;" xml:space="preserve">
<style type="text/css">
	.st0{opacity:0.2;fill:#231F20;}
	.st1{fill:#FFFFFF;}
</style>
<g>
	<circle class="st0" cx="128" cy="128" r="128"/>
	<path class="st1" d="M81.3,128c0-2.9,1.1-5.9,3.4-8.1l70.5-70.5c4.5-4.5,11.8-4.5,16.2,0c4.5,4.5,4.5,11.8,0,16.2L109,128
		l62.4,62.4c4.5,4.5,4.5,11.8,0,16.2c-4.5,4.5-11.8,4.5-16.2,0l-70.5-70.5C82.4,133.9,81.3,130.9,81.3,128z"/>
</g>
</svg>
