<?xml version="1.0" encoding="utf-8"?>
<!-- Generator: Adobe Illustrator 22.1.0, SVG Export Plug-In . SVG Version: 6.00 Build 0)  -->
<svg version="1.1" id="Layer_1" xmlns="http://www.w3.org/2000/svg" xmlns:xlink="http://www.w3.org/1999/xlink" x="0px" y="0px"
	 viewBox="0 0 256 256" style="enable-background:new 0 0 256 256;" xml:space="preserve">
<style type="text/css">
	.st0{opacity:0.5;}
</style>
<g class="st0">
	<path d="M152.5,128c0,13.5-11,24.5-24.5,24.5s-24.5-11-24.5-24.5s11-24.5,24.5-24.5S152.5,114.5,152.5,128z"/>
	<path d="M185.3,84.7c-1.2-3.2-3.1-6.1-5.5-8.5c-2.4-2.4-5.3-4.3-8.5-5.5c-2.6-1-6.5-2.2-13.6-2.5c-7.8-0.4-10.1-0.4-29.7-0.4
		c-19.6,0-22,0.1-29.7,0.4c-7.2,0.3-11.1,1.5-13.6,2.5c-3.2,1.2-6.1,3.1-8.5,5.5c-2.4,2.4-4.3,5.3-5.5,8.5c-1,2.6-2.2,6.5-2.5,13.6
		c-0.4,7.8-0.4,10.1-0.4,29.7c0,19.6,0.1,21.9,0.4,29.7c0.3,7.2,1.5,11.1,2.5,13.6c1.2,3.2,3.1,6.1,5.5,8.5c2.4,2.4,5.3,4.3,8.5,5.5
		c2.6,1,6.5,2.2,13.6,2.5c7.8,0.4,10.1,0.4,29.7,0.4c19.6,0,22-0.1,29.7-0.4c7.2-0.3,11.1-1.5,13.6-2.5c6.4-2.5,11.5-7.5,13.9-13.9
		c1-2.6,2.2-6.5,2.5-13.6c0.4-7.8,0.4-10.1,0.4-29.7c0-19.6-0.1-22-0.4-29.7C187.5,91.1,186.3,87.2,185.3,84.7z M128,165.7
		c-20.8,0-37.7-16.9-37.7-37.7s16.9-37.7,37.7-37.7c20.8,0,37.7,16.9,37.7,37.7S148.8,165.7,128,165.7z M167.2,97.6
		c-4.9,0-8.8-3.9-8.8-8.8s3.9-8.8,8.8-8.8s8.8,3.9,8.8,8.8C176.1,93.6,172.1,97.6,167.2,97.6z"/>
	<path d="M128,0C57.3,0,0,57.3,0,128s57.3,128,128,128s128-57.3,128-128S198.7,0,128,0z M201.1,158.3c-0.4,7.8-1.6,13.2-3.4,17.8
		c-3.8,9.9-11.6,17.7-21.5,21.5c-4.7,1.8-10,3.1-17.8,3.4c-7.8,0.4-10.3,0.4-30.3,0.4c-20,0-22.5-0.1-30.3-0.4
		c-7.8-0.4-13.2-1.6-17.8-3.4c-4.9-1.8-9.3-4.7-13-8.5c-3.7-3.7-6.6-8.1-8.5-13c-1.8-4.7-3.1-10-3.4-17.8
		c-0.4-7.8-0.4-10.3-0.4-30.3s0.1-22.5,0.4-30.3c0.4-7.8,1.6-13.2,3.4-17.8c1.8-4.9,4.7-9.3,8.5-13c3.7-3.7,8.1-6.6,13-8.5
		c4.7-1.8,10-3.1,17.8-3.4c7.8-0.4,10.3-0.4,30.3-0.4s22.5,0.1,30.3,0.4c7.8,0.4,13.2,1.6,17.8,3.4c4.9,1.8,9.3,4.7,13,8.5
		c3.7,3.7,6.6,8.1,8.5,13c1.8,4.7,3.1,10,3.4,17.8c0.4,7.8,0.4,10.3,0.4,30.3S201.4,150.5,201.1,158.3z"/>
</g>
</svg>
